{
	"training_objective": {
		"train_comp": false, 
        "train_decomp": true,
        "train_fg": true,
        "train_bg": false
	},
	"comp_use_side_info": false,
	"decomp_use_side_info": false,
	"real_fg": false,
	"real_bg": false,
	"eval_only": false,
	"v_size": 100,
	"pretrained_model_paths":{
		"comp_model_path": "trained_models/fashion-mnist-comp_gen",
		"decomp_model_path": false,
		"fg_model_path": false,
		"bg_model_path": "trained_models/mnist-b_gen"
	},
	"data": {
		"dataset": "fashion-mnist-background",
		"output_dim": 784,
		"label_used": -1,
		"fg_Gnoise": false
	},
	"hyperparams": {
		"batch_size": 100,
		"LAMBDA": 1,
		"iters": 100000,
		"disc_iters": 1,
		"comp_disc_dim": 32,
		"comp_gen_dim": 32,
		"decomp_disc_dim": 64,
		"decomp_gen_dim": 64,
		"noise_type": "Gaussian",
		"disc_learning_rate": 2e-4,
		"gen_learning_rate": 1e-4,
		"cycle_loss_p": 0.000
	},
	"fg_hyperparams":{
		"batch_size": 100,
		"code_size": 48,
		"gen_dim": 32,
		"noise_type": "Gaussian"
	},
	"bg_hyperparams":{
		"batch_size": 100,
		"code_size": 1,
		"gen_dim": 16,
		"noise_type": "Gaussian"
	}
}