{
	"training_objective": "mnist-f", 
	"eval_only": false,
	"model_path": false,
	"v_size": 100,
	"eval_while_training": false,
	"data": {
		"dataset": "fashion-mnist-background",
		"output_dim": 784,
		"label_used": 5,
		"fg_Gnoise": false
	},
	"hyperparams": {
		"batch_size": 100,
		"code_size": 48,
		"LAMBDA": 1,
		"iters": 100000,
		"disc_iters": 1,
		"disc_dim": 32,
		"gen_dim": 32,
		"noise_type": "Gaussian",
		"disc_learning_rate": 2e-4,
		"gen_learning_rate": 1e-4
	}
}